…
``` r
instacart <- instacart %>% 
    janitor::clean_names() %>% 
    distinct() 
instacart %>% 
    group_by(user_id) %>% 
    summarize(count = n(), order_number = mean(order_number), order_dow = mean(order_dow),order_hour_of_day = mean(order_hour_of_day), reorder = sum(as.numeric(reordered)), days_before_prior_purchase = mean(days_since_prior_order) )
```

    ## # A tibble: 131,209 x 7
    ##    user_id count order_number order_dow order_hour_of_d… reorder
    ##      <int> <int>        <dbl>     <dbl>            <dbl>   <dbl>
    ##  1       1    11           11         4                8      10
    ##  2       2    31           15         1               11      12
    ##  3       5     9            5         0               11       4
    ##  4       7     9           21         2               11       8
    ##  5       8    18            4         1               14       4
    ##  6       9    22            4         6               10      22
    ##  7      10     4            6         0               19       0
    ##  8      13     5           13         0               21       4
    ##  9      14    11           14         2               19       8
    ## 10      17     6           41         3               10       3
    ## # … with 131,199 more rows, and 1 more variable:
    ## #   days_before_prior_purchase <dbl>
…
